…
Unique values in sens_data:
- degree_ratio: 0.5, 0.75, 1, 1.25, 1.5, 1.75, 2 
- true_positive_rate: 0.3, 0.4, 0.5, 0.6, 0.7, 0.8, 0.9, 1 
- indicator_name: document_withholding, pay_issues, threats_abuse, excessive_hours, access_to_help 
- precision: 0.8, 0.9, 1 

  B. Data Structure Check


  This shows how many data points exist per combination:


Data structure check:
# A tibble: 280 × 9
   indicator_name degree_ratio true_positive_rate n_rows min_basic max_basic min_adjusted max_adjusted
   <chr>                 <dbl>              <dbl>  <int>     <dbl>     <dbl>        <dbl>        <dbl>
 1 access_to_help         0.5                 0.3      3    83054.    83054.      442957.      553696.
 2 access_to_help         0.5                 0.4      3    83054.    83054.      332218.      415272.
 3 access_to_help         0.5                 0.5      3    83054.    83054.      265774.      332218.
 4 access_to_help         0.5                 0.6      3    83054.    83054.      221478.      276848.
 5 access_to_help         0.5                 0.7      3    83054.    83054.      189839.      237298.
 6 access_to_help         0.5                 0.8      3    83054.    83054.      166109.      207636.
 7 access_to_help         0.5                 0.9      3    83054.    83054.      147652.      184565.
 8 access_to_help         0.5                 1        3    83054.    83054.      132887.      166109.
 9 access_to_help         0.75                0.3      3    83054.    83054.      295305.      369131.
10 access_to_help         0.75                0.4      3    83054.    83054.      221478.      276848.
# ℹ 270 more rows
# ℹ 1 more variable: unique_adjustment_impact <int>
# ℹ Use `print(n = ...)` to see more rows
…
